EESchema Schematic File Version 2
LIBS:power
LIBS:device
LIBS:transistors
LIBS:conn
LIBS:linear
LIBS:regul
LIBS:74xx
LIBS:cmos4000
LIBS:adc-dac
LIBS:memory
LIBS:xilinx
LIBS:special
LIBS:microcontrollers
LIBS:dsp
LIBS:microchip
LIBS:analog_switches
LIBS:motorola
LIBS:texas
LIBS:intel
LIBS:audio
LIBS:interface
LIBS:digital-audio
LIBS:philips
LIBS:display
LIBS:cypress
LIBS:siliconi
LIBS:opto
LIBS:atmel
LIBS:contrib
LIBS:valves
LIBS:diypinball-parts
LIBS:dips-s
LIBS:nxp_armmcu
LIBS:arm-swd-header
LIBS:base-module-hardware-v2-cache
EELAYER 25 0
EELAYER END
$Descr USLetter 11000 8500
encoding utf-8
Sheet 1 8
Title "DIYPinball Base Board"
Date "Sunday, February 22, 2015"
Rev "2.0"
Comp "DIYPinball.ca"
Comment1 ""
Comment2 ""
Comment3 ""
Comment4 ""
$EndDescr
$Sheet
S 9150 900  1100 1300
U 5313AFE7
F0 "Solenoid Driver" 50
F1 "solenoid-driver.sch" 50
F2 "SOL_PWR" I L 9150 1000 60 
F3 "SOLENOID_0" I L 9150 1400 60 
F4 "SOLENOID_1" I L 9150 1500 60 
F5 "SOLENOID_2" I L 9150 1600 60 
F6 "SOLENOID_3" I L 9150 1700 60 
F7 "SOLENOID_4" I L 9150 1800 60 
F8 "SOLENOID_5" I L 9150 1900 60 
F9 "SOLENOID_6" I L 9150 2000 60 
F10 "SOLENOID_7" I L 9150 2100 60 
F11 "SOL_3V3" I L 9150 1200 60 
F12 "SOL_12V" I L 9150 1100 60 
$EndSheet
$Sheet
S 9150 2400 1100 1200
U 5313B993
F0 "Lamp Driver" 50
F1 "lamp-driver.sch" 50
F2 "LAMP_12V" I L 9150 2500 60 
F3 "LAMP_3V3" I L 9150 2600 60 
F4 "LAMP_COL0" I L 9150 2800 60 
F5 "LAMP_COL1" I L 9150 2900 60 
F6 "LAMP_COL2" I L 9150 3000 60 
F7 "LAMP_COL3" I L 9150 3100 60 
F8 "LAMP_ROW0" I L 9150 3200 60 
F9 "LAMP_ROW1" I L 9150 3300 60 
F10 "LAMP_ROW2" I L 9150 3400 60 
F11 "LAMP_ROW3" I L 9150 3500 60 
$EndSheet
$Sheet
S 9150 3800 1100 1200
U 5313CA5C
F0 "Switch Matrix" 50
F1 "switch-matrix.sch" 50
F2 "SWITCH_12V" I L 9150 3900 60 
F3 "SWITCH_3V3" I L 9150 4000 60 
F4 "ROW0" I L 9150 4200 60 
F5 "ROW1" I L 9150 4300 60 
F6 "ROW2" I L 9150 4400 60 
F7 "ROW3" I L 9150 4500 60 
F8 "COL0" O L 9150 4600 60 
F9 "COL1" O L 9150 4700 60 
F10 "COL2" O L 9150 4800 60 
F11 "COL3" O L 9150 4900 60 
$EndSheet
$Sheet
S 4950 1800 2100 2900
U 5323E468
F0 "Control Logic" 50
F1 "control-logic.sch" 50
F2 "SOLENOID0" O R 7050 1900 60 
F3 "SOLENOID1" O R 7050 2000 60 
F4 "SOLENOID2" O R 7050 2100 60 
F5 "SOLENOID3" O R 7050 2200 60 
F6 "SOLENOID4" O R 7050 2300 60 
F7 "SOLENOID5" O R 7050 2400 60 
F8 "SOLENOID6" O R 7050 2500 60 
F9 "SOLENOID7" O R 7050 2600 60 
F10 "LAMP_ROW0" O R 7050 3200 60 
F11 "LAMP_ROW1" O R 7050 3300 60 
F12 "LAMP_ROW2" O R 7050 3400 60 
F13 "LAMP_ROW3" O R 7050 3500 60 
F14 "LAMP_COL0" O R 7050 2800 60 
F15 "LAMP_COL1" O R 7050 2900 60 
F16 "LAMP_COL2" O R 7050 3000 60 
F17 "LAMP_COL3" O R 7050 3100 60 
F18 "12V_SENSE" I L 4950 2400 60 
F19 "SOLENOID_SENSE" I L 4950 2600 60 
F20 "LAMP_SENSE" I L 4950 2700 60 
F21 "CONTROL_5V" I L 4950 1900 60 
F22 "CONTROL_3V3" I L 4950 2000 60 
F23 "CANH" B L 4950 3200 60 
F24 "CANL" B L 4950 3300 60 
F25 "SWITCH_ROW0" O R 7050 3700 60 
F26 "SWITCH_ROW1" O R 7050 3800 60 
F27 "SWITCH_ROW2" O R 7050 3900 60 
F28 "SWITCH_ROW3" O R 7050 4000 60 
F29 "SWITCH_COL0" I R 7050 4100 60 
F30 "SWITCH_COL1" I R 7050 4200 60 
F31 "SWITCH_COL2" I R 7050 4300 60 
F32 "SWITCH_COL3" I R 7050 4400 60 
F33 "RGB_OUT" O R 7050 4600 60 
F34 "VSOL_IN_SENSE" I L 4950 2200 60 
F35 "VSOL_SENSE" I L 4950 2300 60 
F36 "VSOL_MEASURE_CONTROL" O L 4950 2900 60 
F37 "VSOL_PRECHARGE_PWM" O L 4950 3000 60 
F38 "SDA" B L 4950 3500 60 
F39 "SCL" B L 4950 3600 60 
$EndSheet
$Sheet
S 2550 1300 1700 1500
U 5311518E
F0 "Power Supply" 50
F1 "power-supply.sch" 50
F2 "VSOL_IN" I L 2550 1500 60 
F3 "12V_IN" I L 2550 1600 60 
F4 "VSOL_OUT" O R 4250 1400 60 
F5 "5V_OUT" O R 4250 1900 60 
F6 "3V3_OUT" O R 4250 2000 60 
F7 "LAMP_12V_OUT" O R 4250 1500 60 
F8 "SWITCH_12V_OUT" O R 4250 1600 60 
F9 "12V_SENSE_OUT" O R 4250 2400 60 
F10 "VSOL_SENSE_OUT" O R 4250 2300 60 
F11 "VSOL_IN_SENSE_OUT" O R 4250 2200 60 
F12 "ISOL_SENSE_OUT" O R 4250 2600 60 
F13 "ILAMP_SENSE_OUT" O R 4250 2700 60 
F14 "VSOL_MEASURE_IN" I L 2550 1800 60 
F15 "VSOL_PRECHARGE_PWM" I L 2550 1900 60 
F16 "RGB_12V_OUT" O R 4250 1700 60 
F17 "SOL_12V_OUT" O R 4250 1800 60 
$EndSheet
$Sheet
S 9150 5200 1100 400 
U 53277CA6
F0 "RGB LED Output" 50
F1 "rgb-led-output.sch" 50
F2 "RGB_DATA" I L 9150 5500 60 
F3 "RGB_12V" I L 9150 5300 60 
$EndSheet
$Comp
L GND #PWR01
U 1 1 53811406
P 2250 4600
F 0 "#PWR01" H 2250 4600 30  0001 C CNN
F 1 "GND" H 2250 4530 30  0001 C CNN
F 2 "" H 2250 4600 60  0000 C CNN
F 3 "" H 2250 4600 60  0000 C CNN
	1    2250 4600
	1    0    0    -1  
$EndComp
$Comp
L PINBALL-CONNECTOR P1
U 1 1 54EDC48D
P 1350 2200
F 0 "P1" H 1350 2950 60  0000 C CNN
F 1 "PINBALL-CONNECTOR" H 1350 1450 60  0000 C CNN
F 2 "PinballParts:PINBALL-CONNECTOR-V" H 1550 2250 60  0001 C CNN
F 3 "" H 1550 2250 60  0000 C CNN
	1    1350 2200
	1    0    0    -1  
$EndComp
$Comp
L PINBALL-CONNECTOR P2
U 1 1 54EDC7FC
P 1350 3900
F 0 "P2" H 1350 4650 60  0000 C CNN
F 1 "PINBALL-CONNECTOR" H 1350 3150 60  0000 C CNN
F 2 "PinballParts:PINBALL-CONNECTOR-V" H 1550 3950 60  0001 C CNN
F 3 "" H 1550 3950 60  0000 C CNN
	1    1350 3900
	1    0    0    -1  
$EndComp
Wire Wire Line
	7050 1900 7950 1900
Wire Wire Line
	7950 1900 7950 1400
Wire Wire Line
	7950 1400 9150 1400
Wire Wire Line
	9150 1500 8050 1500
Wire Wire Line
	8050 1500 8050 2000
Wire Wire Line
	8050 2000 7050 2000
Wire Wire Line
	7050 2100 8150 2100
Wire Wire Line
	8150 2100 8150 1600
Wire Wire Line
	8150 1600 9150 1600
Wire Wire Line
	9150 1700 8250 1700
Wire Wire Line
	8250 1700 8250 2200
Wire Wire Line
	8250 2200 7050 2200
Wire Wire Line
	7050 2300 8350 2300
Wire Wire Line
	8350 2300 8350 1800
Wire Wire Line
	8350 1800 9150 1800
Wire Wire Line
	9150 1900 8450 1900
Wire Wire Line
	8450 1900 8450 2400
Wire Wire Line
	8450 2400 7050 2400
Wire Wire Line
	7050 2500 8550 2500
Wire Wire Line
	8550 2500 8550 2000
Wire Wire Line
	8550 2000 9150 2000
Wire Wire Line
	9150 2100 8650 2100
Wire Wire Line
	8650 2100 8650 2600
Wire Wire Line
	8650 2600 7050 2600
Wire Wire Line
	7050 2800 9150 2800
Wire Wire Line
	7050 2900 9150 2900
Wire Wire Line
	7050 3000 9150 3000
Wire Wire Line
	7050 3100 9150 3100
Wire Wire Line
	7050 3200 9150 3200
Wire Wire Line
	7050 3300 9150 3300
Wire Wire Line
	7050 3400 9150 3400
Wire Wire Line
	7050 3500 9150 3500
Wire Wire Line
	7050 3700 8650 3700
Wire Wire Line
	8650 3700 8650 4200
Wire Wire Line
	8650 4200 9150 4200
Wire Wire Line
	9150 4300 8550 4300
Wire Wire Line
	8550 4300 8550 3800
Wire Wire Line
	8550 3800 7050 3800
Wire Wire Line
	7050 3900 8450 3900
Wire Wire Line
	8450 3900 8450 4400
Wire Wire Line
	8450 4400 9150 4400
Wire Wire Line
	9150 4500 8350 4500
Wire Wire Line
	8350 4500 8350 4000
Wire Wire Line
	8350 4000 7050 4000
Wire Wire Line
	7050 4100 8250 4100
Wire Wire Line
	8150 4200 7050 4200
Wire Wire Line
	7050 4300 8050 4300
Wire Wire Line
	7950 4400 7050 4400
Wire Wire Line
	9050 4000 9150 4000
Wire Wire Line
	9050 1200 9050 5900
Wire Wire Line
	4750 1200 9150 1200
Wire Wire Line
	9150 2600 9050 2600
Connection ~ 9050 2600
Wire Wire Line
	4250 2000 4950 2000
Wire Wire Line
	4750 2000 4750 1200
Connection ~ 9050 1200
Wire Wire Line
	9150 4600 8250 4600
Wire Wire Line
	8250 4600 8250 4100
Wire Wire Line
	9150 4700 8150 4700
Wire Wire Line
	8150 4700 8150 4200
Wire Wire Line
	9150 4800 8050 4800
Wire Wire Line
	8050 4800 8050 4300
Wire Wire Line
	9150 4900 7950 4900
Wire Wire Line
	7950 4900 7950 4400
Wire Wire Line
	4250 1900 4950 1900
Connection ~ 4750 2000
Wire Wire Line
	4250 2700 4950 2700
Wire Wire Line
	4950 2600 4250 2600
Wire Wire Line
	4250 2400 4950 2400
Wire Wire Line
	4950 2300 4250 2300
Wire Wire Line
	4250 2200 4950 2200
Wire Wire Line
	4950 2900 2450 2900
Wire Wire Line
	2450 2900 2450 1800
Wire Wire Line
	2450 1800 2550 1800
Wire Wire Line
	4950 3000 2350 3000
Wire Wire Line
	2350 3000 2350 1900
Wire Wire Line
	4350 800  4350 1400
Wire Wire Line
	4350 1400 4250 1400
Wire Wire Line
	4450 1500 4450 900 
Wire Wire Line
	4450 900  8950 900 
Wire Wire Line
	8950 900  8950 2500
Wire Wire Line
	8950 2500 9150 2500
Wire Wire Line
	9150 3900 8850 3900
Wire Wire Line
	8850 3900 8850 1000
Wire Wire Line
	8850 1000 4550 1000
Wire Wire Line
	4550 1000 4550 1600
Wire Wire Line
	4550 1600 4250 1600
Wire Wire Line
	1750 1600 1850 1600
Wire Wire Line
	1950 1600 2550 1600
Wire Wire Line
	2250 2500 2250 4600
Wire Wire Line
	2050 3200 4950 3200
Wire Wire Line
	2150 3300 4950 3300
Wire Wire Line
	9150 5500 7850 5500
Wire Wire Line
	7850 5500 7850 4600
Wire Wire Line
	7850 4600 7050 4600
Wire Wire Line
	4250 1700 4850 1700
Wire Wire Line
	4850 1700 4850 1300
Wire Wire Line
	4850 1300 8750 1300
Wire Wire Line
	8750 1300 8750 5300
Wire Wire Line
	8750 5300 9150 5300
Wire Wire Line
	1850 3400 1750 3400
Wire Wire Line
	1850 1500 1850 3400
Wire Wire Line
	1750 1700 1850 1700
Connection ~ 1850 1700
Connection ~ 1850 1600
Wire Wire Line
	1750 3300 1850 3300
Connection ~ 1850 3300
Wire Wire Line
	1950 3600 1750 3600
Wire Wire Line
	1950 1600 1950 3700
Wire Wire Line
	1950 1900 1750 1900
Wire Wire Line
	1750 2000 1950 2000
Connection ~ 1950 2000
Connection ~ 1950 1900
Wire Wire Line
	1950 3700 1750 3700
Connection ~ 1950 3600
Wire Wire Line
	1750 2200 2050 2200
Wire Wire Line
	2050 2200 2050 3900
Wire Wire Line
	2050 3900 1750 3900
Wire Wire Line
	2150 4000 1750 4000
Wire Wire Line
	2150 2300 2150 4000
Wire Wire Line
	2150 2300 1750 2300
Connection ~ 2050 3200
Connection ~ 2150 3300
Wire Wire Line
	2250 2500 1750 2500
Wire Wire Line
	1750 2600 2250 2600
Connection ~ 2250 2600
Wire Wire Line
	1750 2700 2250 2700
Connection ~ 2250 2700
Wire Wire Line
	1750 2800 2250 2800
Connection ~ 2250 2800
Wire Wire Line
	1750 4500 2250 4500
Connection ~ 2250 4500
Wire Wire Line
	1750 4400 2250 4400
Connection ~ 2250 4400
Wire Wire Line
	1750 4300 2250 4300
Connection ~ 2250 4300
Wire Wire Line
	1750 4200 2250 4200
Connection ~ 2250 4200
Wire Wire Line
	4450 1500 4250 1500
Wire Wire Line
	2550 1500 1850 1500
Wire Wire Line
	2350 1900 2550 1900
Wire Wire Line
	4250 1800 4650 1800
Wire Wire Line
	4650 1800 4650 1100
Wire Wire Line
	4650 1100 9150 1100
Wire Wire Line
	9150 1000 9050 1000
Wire Wire Line
	9050 1000 9050 800 
Wire Wire Line
	9050 800  4350 800 
$Sheet
S 9150 5800 1100 500 
U 55074A9D
F0 "Accelerometer" 60
F1 "accelerometer.sch" 60
F2 "SDA" B L 9150 6100 60 
F3 "SCL" B L 9150 6200 60 
F4 "ACCEL_3V3" I L 9150 5900 60 
$EndSheet
Wire Wire Line
	9050 5900 9150 5900
Connection ~ 9050 4000
Wire Wire Line
	9150 6100 4750 6100
Wire Wire Line
	4750 6100 4750 3500
Wire Wire Line
	4750 3500 4950 3500
Wire Wire Line
	4950 3600 4850 3600
Wire Wire Line
	4850 3600 4850 6200
Wire Wire Line
	4850 6200 9150 6200
$EndSCHEMATC
