EESchema Schematic File Version 2
LIBS:power
LIBS:device
LIBS:transistors
LIBS:conn
LIBS:linear
LIBS:regul
LIBS:74xx
LIBS:cmos4000
LIBS:adc-dac
LIBS:memory
LIBS:xilinx
LIBS:special
LIBS:microcontrollers
LIBS:dsp
LIBS:microchip
LIBS:analog_switches
LIBS:motorola
LIBS:texas
LIBS:intel
LIBS:audio
LIBS:interface
LIBS:digital-audio
LIBS:philips
LIBS:display
LIBS:cypress
LIBS:siliconi
LIBS:opto
LIBS:atmel
LIBS:contrib
LIBS:valves
LIBS:diypinball-parts
LIBS:dips-s
LIBS:nxp_armmcu
LIBS:arm-swd-header
LIBS:base-module-hardware-v2-cache
EELAYER 25 0
EELAYER END
$Descr USLetter 11000 8500
encoding utf-8
Sheet 3 8
Title "DIYPinball Base Board"
Date "Sunday, February 22, 2015"
Rev "2.0"
Comp "DIYPinball.ca"
Comment1 ""
Comment2 ""
Comment3 ""
Comment4 ""
$EndDescr
Text HLabel 1300 750  0    60   Input ~ 0
LAMP_12V
Text HLabel 1150 5050 0    60   Input ~ 0
LAMP_3V3
Text HLabel 1150 6200 0    60   Input ~ 0
LAMP_COL0
Text HLabel 3400 6200 0    60   Input ~ 0
LAMP_COL1
Text HLabel 5650 6200 0    60   Input ~ 0
LAMP_COL2
Text HLabel 7900 6200 0    60   Input ~ 0
LAMP_COL3
Text HLabel 1250 2350 0    60   Input ~ 0
LAMP_ROW0
Text HLabel 3500 2350 0    60   Input ~ 0
LAMP_ROW1
Text HLabel 5750 2350 0    60   Input ~ 0
LAMP_ROW2
Text HLabel 8000 2350 0    60   Input ~ 0
LAMP_ROW3
$Comp
L R R61
U 1 1 5323681F
P 1600 2350
F 0 "R61" V 1680 2350 40  0000 C CNN
F 1 "1K" V 1607 2351 40  0000 C CNN
F 2 "Resistors_SMD:R_0603" V 1530 2350 30  0000 C CNN
F 3 "~" H 1600 2350 30  0000 C CNN
	1    1600 2350
	0    -1   -1   0   
$EndComp
$Comp
L R R53
U 1 1 5323682E
P 1950 1800
F 0 "R53" V 2030 1800 40  0000 C CNN
F 1 "10K" V 1957 1801 40  0000 C CNN
F 2 "Resistors_SMD:R_0603" V 1880 1800 30  0000 C CNN
F 3 "~" H 1950 1800 30  0000 C CNN
	1    1950 1800
	1    0    0    -1  
$EndComp
Wire Wire Line
	1850 2350 2050 2350
Wire Wire Line
	1950 2350 1950 2050
Connection ~ 1950 2350
$Comp
L GND #PWR010
U 1 1 53236840
P 2350 2650
F 0 "#PWR010" H 2350 2650 30  0001 C CNN
F 1 "GND" H 2350 2580 30  0001 C CNN
F 2 "" H 2350 2650 60  0000 C CNN
F 3 "" H 2350 2650 60  0000 C CNN
	1    2350 2650
	1    0    0    -1  
$EndComp
Wire Wire Line
	2350 2650 2350 2550
$Comp
L R R54
U 1 1 5323695A
P 2350 1800
F 0 "R54" V 2430 1800 40  0000 C CNN
F 1 "1K" V 2357 1801 40  0000 C CNN
F 2 "Resistors_SMD:R_0603" V 2280 1800 30  0000 C CNN
F 3 "~" H 2350 1800 30  0000 C CNN
	1    2350 1800
	1    0    0    -1  
$EndComp
$Comp
L R R49
U 1 1 53236969
P 2350 1100
F 0 "R49" V 2430 1100 40  0000 C CNN
F 1 "10K" V 2357 1101 40  0000 C CNN
F 2 "Resistors_SMD:R_0603" V 2280 1100 30  0000 C CNN
F 3 "~" H 2350 1100 30  0000 C CNN
	1    2350 1100
	1    0    0    -1  
$EndComp
Wire Wire Line
	2350 1350 2350 1550
Wire Wire Line
	2350 2050 2350 2150
Wire Wire Line
	2550 1450 2350 1450
Connection ~ 2350 1450
Wire Wire Line
	1300 750  9950 750 
Wire Wire Line
	2350 750  2350 850 
Wire Wire Line
	2850 750  2850 1300
Connection ~ 2350 750 
Connection ~ 2850 750 
$Comp
L R R62
U 1 1 53236C71
P 3850 2350
F 0 "R62" V 3930 2350 40  0000 C CNN
F 1 "1K" V 3857 2351 40  0000 C CNN
F 2 "Resistors_SMD:R_0603" V 3780 2350 30  0000 C CNN
F 3 "~" H 3850 2350 30  0000 C CNN
	1    3850 2350
	0    -1   -1   0   
$EndComp
$Comp
L R R55
U 1 1 53236C77
P 4200 1800
F 0 "R55" V 4280 1800 40  0000 C CNN
F 1 "10K" V 4207 1801 40  0000 C CNN
F 2 "Resistors_SMD:R_0603" V 4130 1800 30  0000 C CNN
F 3 "~" H 4200 1800 30  0000 C CNN
	1    4200 1800
	1    0    0    -1  
$EndComp
Wire Wire Line
	4100 2350 4300 2350
Wire Wire Line
	4200 2350 4200 2050
Connection ~ 4200 2350
$Comp
L GND #PWR011
U 1 1 53236C80
P 4600 2650
F 0 "#PWR011" H 4600 2650 30  0001 C CNN
F 1 "GND" H 4600 2580 30  0001 C CNN
F 2 "" H 4600 2650 60  0000 C CNN
F 3 "" H 4600 2650 60  0000 C CNN
	1    4600 2650
	1    0    0    -1  
$EndComp
Wire Wire Line
	4600 2650 4600 2550
$Comp
L R R56
U 1 1 53236C87
P 4600 1800
F 0 "R56" V 4680 1800 40  0000 C CNN
F 1 "1K" V 4607 1801 40  0000 C CNN
F 2 "Resistors_SMD:R_0603" V 4530 1800 30  0000 C CNN
F 3 "~" H 4600 1800 30  0000 C CNN
	1    4600 1800
	1    0    0    -1  
$EndComp
$Comp
L R R50
U 1 1 53236C8D
P 4600 1100
F 0 "R50" V 4680 1100 40  0000 C CNN
F 1 "10K" V 4607 1101 40  0000 C CNN
F 2 "Resistors_SMD:R_0603" V 4530 1100 30  0000 C CNN
F 3 "~" H 4600 1100 30  0000 C CNN
	1    4600 1100
	1    0    0    -1  
$EndComp
Wire Wire Line
	4600 1350 4600 1550
Wire Wire Line
	4600 2050 4600 2150
Wire Wire Line
	4800 1450 4600 1450
Connection ~ 4600 1450
Wire Wire Line
	4600 750  4600 850 
Wire Wire Line
	5100 750  5100 1300
Connection ~ 4600 750 
Connection ~ 5100 750 
$Comp
L R R63
U 1 1 53236CAB
P 6100 2350
F 0 "R63" V 6180 2350 40  0000 C CNN
F 1 "1K" V 6107 2351 40  0000 C CNN
F 2 "Resistors_SMD:R_0603" V 6030 2350 30  0000 C CNN
F 3 "~" H 6100 2350 30  0000 C CNN
	1    6100 2350
	0    -1   -1   0   
$EndComp
$Comp
L R R57
U 1 1 53236CB1
P 6450 1800
F 0 "R57" V 6530 1800 40  0000 C CNN
F 1 "10K" V 6457 1801 40  0000 C CNN
F 2 "Resistors_SMD:R_0603" V 6380 1800 30  0000 C CNN
F 3 "~" H 6450 1800 30  0000 C CNN
	1    6450 1800
	1    0    0    -1  
$EndComp
Wire Wire Line
	6350 2350 6550 2350
Wire Wire Line
	6450 2350 6450 2050
Connection ~ 6450 2350
$Comp
L GND #PWR012
U 1 1 53236CBA
P 6850 2650
F 0 "#PWR012" H 6850 2650 30  0001 C CNN
F 1 "GND" H 6850 2580 30  0001 C CNN
F 2 "" H 6850 2650 60  0000 C CNN
F 3 "" H 6850 2650 60  0000 C CNN
	1    6850 2650
	1    0    0    -1  
$EndComp
Wire Wire Line
	6850 2650 6850 2550
$Comp
L R R58
U 1 1 53236CC1
P 6850 1800
F 0 "R58" V 6930 1800 40  0000 C CNN
F 1 "1K" V 6857 1801 40  0000 C CNN
F 2 "Resistors_SMD:R_0603" V 6780 1800 30  0000 C CNN
F 3 "~" H 6850 1800 30  0000 C CNN
	1    6850 1800
	1    0    0    -1  
$EndComp
$Comp
L R R51
U 1 1 53236CC7
P 6850 1100
F 0 "R51" V 6930 1100 40  0000 C CNN
F 1 "10K" V 6857 1101 40  0000 C CNN
F 2 "Resistors_SMD:R_0603" V 6780 1100 30  0000 C CNN
F 3 "~" H 6850 1100 30  0000 C CNN
	1    6850 1100
	1    0    0    -1  
$EndComp
Wire Wire Line
	6850 1350 6850 1550
Wire Wire Line
	6850 2050 6850 2150
Wire Wire Line
	7050 1450 6850 1450
Connection ~ 6850 1450
Wire Wire Line
	7350 750  7350 1300
$Comp
L R R64
U 1 1 53236CE5
P 8350 2350
F 0 "R64" V 8430 2350 40  0000 C CNN
F 1 "1K" V 8357 2351 40  0000 C CNN
F 2 "Resistors_SMD:R_0603" V 8280 2350 30  0000 C CNN
F 3 "~" H 8350 2350 30  0000 C CNN
	1    8350 2350
	0    -1   -1   0   
$EndComp
$Comp
L R R59
U 1 1 53236CEB
P 8700 1800
F 0 "R59" V 8780 1800 40  0000 C CNN
F 1 "10K" V 8707 1801 40  0000 C CNN
F 2 "Resistors_SMD:R_0603" V 8630 1800 30  0000 C CNN
F 3 "~" H 8700 1800 30  0000 C CNN
	1    8700 1800
	1    0    0    -1  
$EndComp
Wire Wire Line
	8600 2350 8800 2350
Wire Wire Line
	8700 2350 8700 2050
Connection ~ 8700 2350
$Comp
L GND #PWR013
U 1 1 53236CF4
P 9100 2650
F 0 "#PWR013" H 9100 2650 30  0001 C CNN
F 1 "GND" H 9100 2580 30  0001 C CNN
F 2 "" H 9100 2650 60  0000 C CNN
F 3 "" H 9100 2650 60  0000 C CNN
	1    9100 2650
	1    0    0    -1  
$EndComp
Wire Wire Line
	9100 2650 9100 2550
$Comp
L R R60
U 1 1 53236CFB
P 9100 1800
F 0 "R60" V 9180 1800 40  0000 C CNN
F 1 "1K" V 9107 1801 40  0000 C CNN
F 2 "Resistors_SMD:R_0603" V 9030 1800 30  0000 C CNN
F 3 "~" H 9100 1800 30  0000 C CNN
	1    9100 1800
	1    0    0    -1  
$EndComp
$Comp
L R R52
U 1 1 53236D01
P 9100 1100
F 0 "R52" V 9180 1100 40  0000 C CNN
F 1 "10K" V 9107 1101 40  0000 C CNN
F 2 "Resistors_SMD:R_0603" V 9030 1100 30  0000 C CNN
F 3 "~" H 9100 1100 30  0000 C CNN
	1    9100 1100
	1    0    0    -1  
$EndComp
Wire Wire Line
	9100 1350 9100 1550
Wire Wire Line
	9100 2050 9100 2150
Wire Wire Line
	9300 1450 9100 1450
Connection ~ 9100 1450
Wire Wire Line
	9100 750  9100 850 
Wire Wire Line
	9600 750  9600 1300
Wire Wire Line
	1250 2350 1350 2350
Wire Wire Line
	3500 2350 3600 2350
Wire Wire Line
	5750 2350 5850 2350
Connection ~ 7350 750 
Wire Wire Line
	6850 850  6850 750 
Connection ~ 6850 750 
Wire Wire Line
	8000 2350 8100 2350
Connection ~ 9100 750 
Connection ~ 9600 750 
$Comp
L R R77
U 1 1 5323722F
P 1500 6200
F 0 "R77" V 1580 6200 40  0000 C CNN
F 1 "1K" V 1507 6201 40  0000 C CNN
F 2 "Resistors_SMD:R_0603" V 1430 6200 30  0000 C CNN
F 3 "~" H 1500 6200 30  0000 C CNN
	1    1500 6200
	0    -1   -1   0   
$EndComp
$Comp
L R R65
U 1 1 53237252
P 1850 5500
F 0 "R65" V 1930 5500 40  0000 C CNN
F 1 "10K" V 1857 5501 40  0000 C CNN
F 2 "Resistors_SMD:R_0603" V 1780 5500 30  0000 C CNN
F 3 "~" H 1850 5500 30  0000 C CNN
	1    1850 5500
	1    0    0    -1  
$EndComp
Wire Wire Line
	1750 6200 1950 6200
Wire Wire Line
	1850 6200 1850 5750
Connection ~ 1850 6200
$Comp
L R R78
U 1 1 53237312
P 2450 6200
F 0 "R78" V 2530 6200 40  0000 C CNN
F 1 "10K" V 2457 6201 40  0000 C CNN
F 2 "Resistors_SMD:R_0603" V 2380 6200 30  0000 C CNN
F 3 "~" H 2450 6200 30  0000 C CNN
	1    2450 6200
	1    0    0    -1  
$EndComp
$Comp
L R R66
U 1 1 53237330
P 2450 5500
F 0 "R66" V 2530 5500 40  0000 C CNN
F 1 "1K" V 2457 5501 40  0000 C CNN
F 2 "Resistors_SMD:R_0603" V 2380 5500 30  0000 C CNN
F 3 "~" H 2450 5500 30  0000 C CNN
	1    2450 5500
	1    0    0    -1  
$EndComp
Wire Wire Line
	2450 5750 2450 5950
Wire Wire Line
	2250 5850 2550 5850
Wire Wire Line
	2250 5850 2250 6000
Connection ~ 2450 5850
Wire Wire Line
	2250 6400 2250 6550
Wire Wire Line
	2450 6450 2450 6650
Connection ~ 2450 6550
$Comp
L GND #PWR014
U 1 1 53237524
P 2450 6650
F 0 "#PWR014" H 2450 6650 30  0001 C CNN
F 1 "GND" H 2450 6580 30  0001 C CNN
F 2 "" H 2450 6650 60  0000 C CNN
F 3 "" H 2450 6650 60  0000 C CNN
	1    2450 6650
	1    0    0    -1  
$EndComp
Wire Wire Line
	2250 6550 2600 6550
Wire Wire Line
	3450 6100 3450 6000
Wire Wire Line
	2600 6100 3450 6100
Wire Wire Line
	2600 6550 2600 6100
$Comp
L R R79
U 1 1 53237795
P 3750 6200
F 0 "R79" V 3830 6200 40  0000 C CNN
F 1 "1K" V 3757 6201 40  0000 C CNN
F 2 "Resistors_SMD:R_0603" V 3680 6200 30  0000 C CNN
F 3 "~" H 3750 6200 30  0000 C CNN
	1    3750 6200
	0    -1   -1   0   
$EndComp
$Comp
L R R67
U 1 1 5323779B
P 4100 5500
F 0 "R67" V 4180 5500 40  0000 C CNN
F 1 "10K" V 4107 5501 40  0000 C CNN
F 2 "Resistors_SMD:R_0603" V 4030 5500 30  0000 C CNN
F 3 "~" H 4100 5500 30  0000 C CNN
	1    4100 5500
	1    0    0    -1  
$EndComp
Wire Wire Line
	4000 6200 4200 6200
Wire Wire Line
	4100 6200 4100 5750
Connection ~ 4100 6200
$Comp
L R R80
U 1 1 532377AA
P 4700 6200
F 0 "R80" V 4780 6200 40  0000 C CNN
F 1 "10K" V 4707 6201 40  0000 C CNN
F 2 "Resistors_SMD:R_0603" V 4630 6200 30  0000 C CNN
F 3 "~" H 4700 6200 30  0000 C CNN
	1    4700 6200
	1    0    0    -1  
$EndComp
$Comp
L R R68
U 1 1 532377B0
P 4700 5500
F 0 "R68" V 4780 5500 40  0000 C CNN
F 1 "1K" V 4707 5501 40  0000 C CNN
F 2 "Resistors_SMD:R_0603" V 4630 5500 30  0000 C CNN
F 3 "~" H 4700 5500 30  0000 C CNN
	1    4700 5500
	1    0    0    -1  
$EndComp
Wire Wire Line
	4700 5750 4700 5950
Wire Wire Line
	4500 5850 4500 6000
Connection ~ 4700 5850
Wire Wire Line
	4500 6400 4500 6550
Wire Wire Line
	4700 6450 4700 6650
Connection ~ 4700 6550
$Comp
L GND #PWR015
U 1 1 532377BD
P 4700 6650
F 0 "#PWR015" H 4700 6650 30  0001 C CNN
F 1 "GND" H 4700 6580 30  0001 C CNN
F 2 "" H 4700 6650 60  0000 C CNN
F 3 "" H 4700 6650 60  0000 C CNN
	1    4700 6650
	1    0    0    -1  
$EndComp
Wire Wire Line
	4500 6550 4850 6550
Wire Wire Line
	5700 6000 5700 6100
Wire Wire Line
	5700 6100 4850 6100
Wire Wire Line
	4850 6100 4850 6550
$Comp
L R R81
U 1 1 532377CD
P 6000 6200
F 0 "R81" V 6080 6200 40  0000 C CNN
F 1 "1K" V 6007 6201 40  0000 C CNN
F 2 "Resistors_SMD:R_0603" V 5930 6200 30  0000 C CNN
F 3 "~" H 6000 6200 30  0000 C CNN
	1    6000 6200
	0    -1   -1   0   
$EndComp
$Comp
L R R69
U 1 1 532377D3
P 6350 5500
F 0 "R69" V 6430 5500 40  0000 C CNN
F 1 "10K" V 6357 5501 40  0000 C CNN
F 2 "Resistors_SMD:R_0603" V 6280 5500 30  0000 C CNN
F 3 "~" H 6350 5500 30  0000 C CNN
	1    6350 5500
	1    0    0    -1  
$EndComp
Wire Wire Line
	6250 6200 6450 6200
Wire Wire Line
	6350 6200 6350 5750
Connection ~ 6350 6200
$Comp
L R R82
U 1 1 532377E2
P 6950 6200
F 0 "R82" V 7030 6200 40  0000 C CNN
F 1 "10K" V 6957 6201 40  0000 C CNN
F 2 "Resistors_SMD:R_0603" V 6880 6200 30  0000 C CNN
F 3 "~" H 6950 6200 30  0000 C CNN
	1    6950 6200
	1    0    0    -1  
$EndComp
$Comp
L R R70
U 1 1 532377E8
P 6950 5500
F 0 "R70" V 7030 5500 40  0000 C CNN
F 1 "1K" V 6957 5501 40  0000 C CNN
F 2 "Resistors_SMD:R_0603" V 6880 5500 30  0000 C CNN
F 3 "~" H 6950 5500 30  0000 C CNN
	1    6950 5500
	1    0    0    -1  
$EndComp
Wire Wire Line
	6950 5750 6950 5950
Wire Wire Line
	6750 5850 7050 5850
Wire Wire Line
	6750 5850 6750 6000
Connection ~ 6950 5850
Wire Wire Line
	6750 6400 6750 6550
Wire Wire Line
	6950 6450 6950 6650
Connection ~ 6950 6550
$Comp
L GND #PWR016
U 1 1 532377F5
P 6950 6650
F 0 "#PWR016" H 6950 6650 30  0001 C CNN
F 1 "GND" H 6950 6580 30  0001 C CNN
F 2 "" H 6950 6650 60  0000 C CNN
F 3 "" H 6950 6650 60  0000 C CNN
	1    6950 6650
	1    0    0    -1  
$EndComp
Wire Wire Line
	6750 6550 7100 6550
Wire Wire Line
	7950 6000 7950 6100
Wire Wire Line
	7950 6100 7100 6100
Wire Wire Line
	7100 6100 7100 6550
$Comp
L R R83
U 1 1 53237805
P 8250 6200
F 0 "R83" V 8330 6200 40  0000 C CNN
F 1 "1K" V 8257 6201 40  0000 C CNN
F 2 "Resistors_SMD:R_0603" V 8180 6200 30  0000 C CNN
F 3 "~" H 8250 6200 30  0000 C CNN
	1    8250 6200
	0    -1   -1   0   
$EndComp
$Comp
L R R71
U 1 1 5323780B
P 8600 5500
F 0 "R71" V 8680 5500 40  0000 C CNN
F 1 "10K" V 8607 5501 40  0000 C CNN
F 2 "Resistors_SMD:R_0603" V 8530 5500 30  0000 C CNN
F 3 "~" H 8600 5500 30  0000 C CNN
	1    8600 5500
	1    0    0    -1  
$EndComp
Wire Wire Line
	8500 6200 8700 6200
Wire Wire Line
	8600 6200 8600 5750
Connection ~ 8600 6200
$Comp
L R R84
U 1 1 5323781A
P 9200 6200
F 0 "R84" V 9280 6200 40  0000 C CNN
F 1 "10K" V 9207 6201 40  0000 C CNN
F 2 "Resistors_SMD:R_0603" V 9130 6200 30  0000 C CNN
F 3 "~" H 9200 6200 30  0000 C CNN
	1    9200 6200
	1    0    0    -1  
$EndComp
$Comp
L R R72
U 1 1 53237820
P 9200 5500
F 0 "R72" V 9280 5500 40  0000 C CNN
F 1 "1K" V 9207 5501 40  0000 C CNN
F 2 "Resistors_SMD:R_0603" V 9130 5500 30  0000 C CNN
F 3 "~" H 9200 5500 30  0000 C CNN
	1    9200 5500
	1    0    0    -1  
$EndComp
Wire Wire Line
	9200 5750 9200 5950
Wire Wire Line
	9000 5850 9000 6000
Connection ~ 9200 5850
Wire Wire Line
	9000 6400 9000 6550
Wire Wire Line
	9200 6450 9200 6650
Connection ~ 9200 6550
$Comp
L GND #PWR017
U 1 1 5323782D
P 9200 6650
F 0 "#PWR017" H 9200 6650 30  0001 C CNN
F 1 "GND" H 9200 6580 30  0001 C CNN
F 2 "" H 9200 6650 60  0000 C CNN
F 3 "" H 9200 6650 60  0000 C CNN
	1    9200 6650
	1    0    0    -1  
$EndComp
Wire Wire Line
	9000 6550 9350 6550
Wire Wire Line
	10200 6100 10200 6000
Wire Wire Line
	9350 6100 10200 6100
Wire Wire Line
	9350 6550 9350 6100
Wire Wire Line
	7900 6200 8000 6200
Wire Wire Line
	5750 6200 5650 6200
Wire Wire Line
	1250 6200 1150 6200
Wire Wire Line
	3400 6200 3500 6200
Wire Wire Line
	2450 5150 9950 5150
Wire Wire Line
	2450 5150 2450 5250
Wire Wire Line
	4700 5250 4700 5150
Connection ~ 4700 5150
Wire Wire Line
	6950 5250 6950 5150
Connection ~ 6950 5150
Wire Wire Line
	9200 5250 9200 5150
Connection ~ 9200 5150
Wire Wire Line
	8600 5050 8600 5250
Wire Wire Line
	1850 5050 1850 5250
Wire Wire Line
	4100 5050 4100 5250
Connection ~ 4100 5050
Wire Wire Line
	6350 5050 6350 5250
Connection ~ 6350 5050
$Comp
L DIODE D9
U 1 1 53238222
P 4250 3350
F 0 "D9" H 4250 3450 40  0000 C CNN
F 1 "S1M" H 4250 3250 40  0000 C CNN
F 2 "Diodes_SMD:Diode-SMA_Standard" H 4250 3350 60  0001 C CNN
F 3 "~" H 4250 3350 60  0000 C CNN
	1    4250 3350
	0    1    1    0   
$EndComp
Wire Wire Line
	1150 5050 8600 5050
Connection ~ 1850 5050
$Comp
L GND #PWR018
U 1 1 53238716
P 1800 1550
F 0 "#PWR018" H 1800 1550 30  0001 C CNN
F 1 "GND" H 1800 1480 30  0001 C CNN
F 2 "" H 1800 1550 60  0000 C CNN
F 3 "" H 1800 1550 60  0000 C CNN
	1    1800 1550
	1    0    0    -1  
$EndComp
$Comp
L GND #PWR019
U 1 1 53238725
P 4050 1550
F 0 "#PWR019" H 4050 1550 30  0001 C CNN
F 1 "GND" H 4050 1480 30  0001 C CNN
F 2 "" H 4050 1550 60  0000 C CNN
F 3 "" H 4050 1550 60  0000 C CNN
	1    4050 1550
	1    0    0    -1  
$EndComp
$Comp
L GND #PWR020
U 1 1 53238734
P 6300 1550
F 0 "#PWR020" H 6300 1550 30  0001 C CNN
F 1 "GND" H 6300 1480 30  0001 C CNN
F 2 "" H 6300 1550 60  0000 C CNN
F 3 "" H 6300 1550 60  0000 C CNN
	1    6300 1550
	1    0    0    -1  
$EndComp
$Comp
L GND #PWR021
U 1 1 53238743
P 8550 1550
F 0 "#PWR021" H 8550 1550 30  0001 C CNN
F 1 "GND" H 8550 1480 30  0001 C CNN
F 2 "" H 8550 1550 60  0000 C CNN
F 3 "" H 8550 1550 60  0000 C CNN
	1    8550 1550
	1    0    0    -1  
$EndComp
Wire Wire Line
	8550 1550 8550 1450
Wire Wire Line
	8550 1450 8700 1450
Wire Wire Line
	8700 1450 8700 1550
Wire Wire Line
	6450 1550 6450 1450
Wire Wire Line
	6450 1450 6300 1450
Wire Wire Line
	6300 1450 6300 1550
Wire Wire Line
	1950 1550 1950 1450
Wire Wire Line
	1950 1450 1800 1450
Wire Wire Line
	1800 1450 1800 1550
Wire Wire Line
	4200 1550 4200 1450
Wire Wire Line
	4200 1450 4050 1450
Wire Wire Line
	4050 1450 4050 1550
$Comp
L DIODE D17
U 1 1 53238B7B
P 4450 3550
F 0 "D17" H 4450 3650 40  0000 C CNN
F 1 "S1M" H 4450 3450 40  0000 C CNN
F 2 "Diodes_SMD:Diode-SMA_Standard" H 4450 3550 60  0001 C CNN
F 3 "~" H 4450 3550 60  0000 C CNN
	1    4450 3550
	0    1    1    0   
$EndComp
$Comp
L DIODE D10
U 1 1 53238B8B
P 4650 3350
F 0 "D10" H 4650 3450 40  0000 C CNN
F 1 "S1M" H 4650 3250 40  0000 C CNN
F 2 "Diodes_SMD:Diode-SMA_Standard" H 4650 3350 60  0001 C CNN
F 3 "~" H 4650 3350 60  0000 C CNN
	1    4650 3350
	0    1    1    0   
$EndComp
$Comp
L DIODE D18
U 1 1 53238B91
P 4850 3550
F 0 "D18" H 4850 3650 40  0000 C CNN
F 1 "S1M" H 4850 3450 40  0000 C CNN
F 2 "Diodes_SMD:Diode-SMA_Standard" H 4850 3550 60  0001 C CNN
F 3 "~" H 4850 3550 60  0000 C CNN
	1    4850 3550
	0    1    1    0   
$EndComp
$Comp
L DIODE D11
U 1 1 53238BB5
P 5050 3350
F 0 "D11" H 5050 3450 40  0000 C CNN
F 1 "S1M" H 5050 3250 40  0000 C CNN
F 2 "Diodes_SMD:Diode-SMA_Standard" H 5050 3350 60  0001 C CNN
F 3 "~" H 5050 3350 60  0000 C CNN
	1    5050 3350
	0    1    1    0   
$EndComp
$Comp
L DIODE D19
U 1 1 53238BBB
P 5250 3550
F 0 "D19" H 5250 3650 40  0000 C CNN
F 1 "S1M" H 5250 3450 40  0000 C CNN
F 2 "Diodes_SMD:Diode-SMA_Standard" H 5250 3550 60  0001 C CNN
F 3 "~" H 5250 3550 60  0000 C CNN
	1    5250 3550
	0    1    1    0   
$EndComp
$Comp
L DIODE D12
U 1 1 53238BC1
P 5450 3350
F 0 "D12" H 5450 3450 40  0000 C CNN
F 1 "S1M" H 5450 3250 40  0000 C CNN
F 2 "Diodes_SMD:Diode-SMA_Standard" H 5450 3350 60  0001 C CNN
F 3 "~" H 5450 3350 60  0000 C CNN
	1    5450 3350
	0    1    1    0   
$EndComp
$Comp
L DIODE D20
U 1 1 53238BC7
P 5650 3550
F 0 "D20" H 5650 3650 40  0000 C CNN
F 1 "S1M" H 5650 3450 40  0000 C CNN
F 2 "Diodes_SMD:Diode-SMA_Standard" H 5650 3550 60  0001 C CNN
F 3 "~" H 5650 3550 60  0000 C CNN
	1    5650 3550
	0    1    1    0   
$EndComp
$Comp
L DIODE D13
U 1 1 53238C04
P 6050 3350
F 0 "D13" H 6050 3450 40  0000 C CNN
F 1 "S1M" H 6050 3250 40  0000 C CNN
F 2 "Diodes_SMD:Diode-SMA_Standard" H 6050 3350 60  0001 C CNN
F 3 "~" H 6050 3350 60  0000 C CNN
	1    6050 3350
	0    1    1    0   
$EndComp
$Comp
L DIODE D21
U 1 1 53238C0A
P 6250 3550
F 0 "D21" H 6250 3650 40  0000 C CNN
F 1 "S1M" H 6250 3450 40  0000 C CNN
F 2 "Diodes_SMD:Diode-SMA_Standard" H 6250 3550 60  0001 C CNN
F 3 "~" H 6250 3550 60  0000 C CNN
	1    6250 3550
	0    1    1    0   
$EndComp
$Comp
L DIODE D14
U 1 1 53238C10
P 6450 3350
F 0 "D14" H 6450 3450 40  0000 C CNN
F 1 "S1M" H 6450 3250 40  0000 C CNN
F 2 "Diodes_SMD:Diode-SMA_Standard" H 6450 3350 60  0001 C CNN
F 3 "~" H 6450 3350 60  0000 C CNN
	1    6450 3350
	0    1    1    0   
$EndComp
$Comp
L DIODE D22
U 1 1 53238C16
P 6650 3550
F 0 "D22" H 6650 3650 40  0000 C CNN
F 1 "S1M" H 6650 3450 40  0000 C CNN
F 2 "Diodes_SMD:Diode-SMA_Standard" H 6650 3550 60  0001 C CNN
F 3 "~" H 6650 3550 60  0000 C CNN
	1    6650 3550
	0    1    1    0   
$EndComp
$Comp
L DIODE D15
U 1 1 53238C1C
P 6850 3350
F 0 "D15" H 6850 3450 40  0000 C CNN
F 1 "S1M" H 6850 3250 40  0000 C CNN
F 2 "Diodes_SMD:Diode-SMA_Standard" H 6850 3350 60  0001 C CNN
F 3 "~" H 6850 3350 60  0000 C CNN
	1    6850 3350
	0    1    1    0   
$EndComp
$Comp
L DIODE D23
U 1 1 53238C22
P 7050 3550
F 0 "D23" H 7050 3650 40  0000 C CNN
F 1 "S1M" H 7050 3450 40  0000 C CNN
F 2 "Diodes_SMD:Diode-SMA_Standard" H 7050 3550 60  0001 C CNN
F 3 "~" H 7050 3550 60  0000 C CNN
	1    7050 3550
	0    1    1    0   
$EndComp
$Comp
L DIODE D16
U 1 1 53238C28
P 7250 3350
F 0 "D16" H 7250 3450 40  0000 C CNN
F 1 "S1M" H 7250 3250 40  0000 C CNN
F 2 "Diodes_SMD:Diode-SMA_Standard" H 7250 3350 60  0001 C CNN
F 3 "~" H 7250 3350 60  0000 C CNN
	1    7250 3350
	0    1    1    0   
$EndComp
$Comp
L DIODE D24
U 1 1 53238C2E
P 7450 3550
F 0 "D24" H 7450 3650 40  0000 C CNN
F 1 "S1M" H 7450 3450 40  0000 C CNN
F 2 "Diodes_SMD:Diode-SMA_Standard" H 7450 3550 60  0001 C CNN
F 3 "~" H 7450 3550 60  0000 C CNN
	1    7450 3550
	0    1    1    0   
$EndComp
Wire Wire Line
	2850 1700 2850 3050
Wire Wire Line
	2850 3050 6850 3050
Wire Wire Line
	4250 3050 4250 3150
Wire Wire Line
	5050 3050 5050 3150
Connection ~ 4250 3050
Wire Wire Line
	6050 3050 6050 3150
Connection ~ 5050 3050
Wire Wire Line
	6850 3050 6850 3150
Connection ~ 6050 3050
Wire Wire Line
	4450 3350 4450 2950
Wire Wire Line
	4450 2950 7050 2950
Wire Wire Line
	5250 2950 5250 3350
Wire Wire Line
	6250 2950 6250 3350
Connection ~ 5250 2950
Wire Wire Line
	7050 2950 7050 3350
Connection ~ 6250 2950
Wire Wire Line
	4650 3150 4650 2850
Wire Wire Line
	4650 2850 7350 2850
Wire Wire Line
	5450 2850 5450 3150
Wire Wire Line
	6450 2850 6450 3150
Connection ~ 5450 2850
Wire Wire Line
	7250 2850 7250 3150
Connection ~ 6450 2850
Wire Wire Line
	4850 3350 4850 2750
Wire Wire Line
	4850 2750 9600 2750
Wire Wire Line
	5650 2750 5650 3350
Wire Wire Line
	6650 2750 6650 3350
Connection ~ 5650 2750
Wire Wire Line
	7450 2750 7450 3350
Connection ~ 6650 2750
Wire Wire Line
	5100 1700 5100 2950
Connection ~ 5100 2950
Wire Wire Line
	7350 2850 7350 1700
Connection ~ 7250 2850
Wire Wire Line
	9600 2750 9600 1700
Connection ~ 7450 2750
Wire Wire Line
	4350 4150 4350 3950
Wire Wire Line
	3450 3950 4950 3950
Wire Wire Line
	3450 3950 3450 5600
Wire Wire Line
	4550 3950 4550 4150
Connection ~ 4350 3950
Wire Wire Line
	4750 3950 4750 4150
Connection ~ 4550 3950
Wire Wire Line
	4950 3950 4950 4150
Connection ~ 4750 3950
Wire Wire Line
	5150 4150 5150 4050
Wire Wire Line
	3550 4050 5750 4050
Wire Wire Line
	3550 4050 3550 4950
Wire Wire Line
	3550 4950 5700 4950
Wire Wire Line
	5350 4050 5350 4150
Connection ~ 5150 4050
Wire Wire Line
	5550 4050 5550 4150
Connection ~ 5350 4050
Wire Wire Line
	5750 4050 5750 4150
Connection ~ 5550 4050
Wire Wire Line
	6950 4150 6950 3950
Wire Wire Line
	6950 3950 10200 3950
Wire Wire Line
	7150 4150 7150 3950
Connection ~ 7150 3950
Wire Wire Line
	7350 4150 7350 3950
Connection ~ 7350 3950
Wire Wire Line
	7550 4150 7550 3950
Connection ~ 7550 3950
Wire Wire Line
	6150 4150 6150 4050
Wire Wire Line
	6150 4050 10100 4050
Wire Wire Line
	10100 4050 10100 4950
Wire Wire Line
	10100 4950 7950 4950
Wire Wire Line
	7950 4950 7950 5600
Wire Wire Line
	6350 4150 6350 4050
Connection ~ 6350 4050
Wire Wire Line
	6550 4150 6550 4050
Connection ~ 6550 4050
Wire Wire Line
	6750 4150 6750 4050
Connection ~ 6750 4050
$Comp
L CONN_16 P4
U 1 1 5323AA41
P 5000 4500
F 0 "P4" V 4960 4500 60  0000 C CNN
F 1 "CONN_16" V 5080 4500 60  0000 C CNN
F 2 "PinballParts:Socket_MOLEX-KK-RM2-54mm_Lock_16pin_straight" H 5000 4500 60  0001 C CNN
F 3 "" H 5000 4500 60  0000 C CNN
	1    5000 4500
	0    -1   1    0   
$EndComp
$Comp
L CONN_16 P5
U 1 1 5323AA6C
P 6800 4500
F 0 "P5" V 6760 4500 60  0000 C CNN
F 1 "CONN_16" V 6880 4500 60  0000 C CNN
F 2 "PinballParts:Socket_MOLEX-KK-RM2-54mm_Lock_16pin_straight" H 6800 4500 60  0001 C CNN
F 3 "" H 6800 4500 60  0000 C CNN
	1    6800 4500
	0    -1   1    0   
$EndComp
Wire Wire Line
	7450 4150 7450 3750
Wire Wire Line
	7250 3550 7250 4150
Wire Wire Line
	7050 4150 7050 3750
Wire Wire Line
	6850 3550 6850 4150
Wire Wire Line
	6650 4150 6650 3750
Wire Wire Line
	6450 3550 6450 4150
Wire Wire Line
	6250 4150 6250 3750
Wire Wire Line
	6050 3550 6050 4150
Wire Wire Line
	5650 4150 5650 3750
Wire Wire Line
	5450 3550 5450 4150
Wire Wire Line
	5250 4150 5250 3750
Wire Wire Line
	5050 3550 5050 4150
Wire Wire Line
	4250 3550 4250 4150
Wire Wire Line
	4450 4150 4450 3750
Wire Wire Line
	4650 3550 4650 4150
Wire Wire Line
	4850 3750 4850 4150
$Comp
L BC846 Q15
U 1 1 5323BCA3
P 2250 2350
F 0 "Q15" H 2250 2201 40  0000 R CNN
F 1 "BC846" H 2250 2500 40  0000 R CNN
F 2 "Housings_SOT-23_SOT-143_TSOT-6:SOT-23" H 2150 2452 29  0000 C CNN
F 3 "~" H 2250 2350 60  0000 C CNN
	1    2250 2350
	1    0    0    -1  
$EndComp
$Comp
L BC846 Q17
U 1 1 5323BCB2
P 6750 2350
F 0 "Q17" H 6750 2201 40  0000 R CNN
F 1 "BC846" H 6750 2500 40  0000 R CNN
F 2 "Housings_SOT-23_SOT-143_TSOT-6:SOT-23" H 6650 2452 29  0000 C CNN
F 3 "~" H 6750 2350 60  0000 C CNN
	1    6750 2350
	1    0    0    -1  
$EndComp
$Comp
L BC846 Q18
U 1 1 5323BCC1
P 9000 2350
F 0 "Q18" H 9000 2201 40  0000 R CNN
F 1 "BC846" H 9000 2500 40  0000 R CNN
F 2 "Housings_SOT-23_SOT-143_TSOT-6:SOT-23" H 8900 2452 29  0000 C CNN
F 3 "~" H 9000 2350 60  0000 C CNN
	1    9000 2350
	1    0    0    -1  
$EndComp
$Comp
L BC846 Q16
U 1 1 5323BCD0
P 4500 2350
F 0 "Q16" H 4500 2201 40  0000 R CNN
F 1 "BC846" H 4500 2500 40  0000 R CNN
F 2 "Housings_SOT-23_SOT-143_TSOT-6:SOT-23" H 4400 2452 29  0000 C CNN
F 3 "~" H 4500 2350 60  0000 C CNN
	1    4500 2350
	1    0    0    -1  
$EndComp
$Comp
L BC846 Q22
U 1 1 5323BCDF
P 4400 6200
F 0 "Q22" H 4400 6051 40  0000 R CNN
F 1 "BC846" H 4400 6350 40  0000 R CNN
F 2 "Housings_SOT-23_SOT-143_TSOT-6:SOT-23" H 4300 6302 29  0000 C CNN
F 3 "~" H 4400 6200 60  0000 C CNN
	1    4400 6200
	1    0    0    -1  
$EndComp
$Comp
L BC846 Q21
U 1 1 5323BCEE
P 2150 6200
F 0 "Q21" H 2150 6051 40  0000 R CNN
F 1 "BC846" H 2150 6350 40  0000 R CNN
F 2 "Housings_SOT-23_SOT-143_TSOT-6:SOT-23" H 2050 6302 29  0000 C CNN
F 3 "~" H 2150 6200 60  0000 C CNN
	1    2150 6200
	1    0    0    -1  
$EndComp
$Comp
L BC846 Q23
U 1 1 5323BCFD
P 6650 6200
F 0 "Q23" H 6650 6051 40  0000 R CNN
F 1 "BC846" H 6650 6350 40  0000 R CNN
F 2 "Housings_SOT-23_SOT-143_TSOT-6:SOT-23" H 6550 6302 29  0000 C CNN
F 3 "~" H 6650 6200 60  0000 C CNN
	1    6650 6200
	1    0    0    -1  
$EndComp
$Comp
L BC846 Q24
U 1 1 5323BD0C
P 8900 6200
F 0 "Q24" H 8900 6051 40  0000 R CNN
F 1 "BC846" H 8900 6350 40  0000 R CNN
F 2 "Housings_SOT-23_SOT-143_TSOT-6:SOT-23" H 8800 6302 29  0000 C CNN
F 3 "~" H 8900 6200 60  0000 C CNN
	1    8900 6200
	1    0    0    -1  
$EndComp
$Comp
L DMP2240UDM Q13
U 1 1 5323D302
P 2750 1500
F 0 "Q13" H 2750 1352 40  0000 R CNN
F 1 "DMP2240UDM" H 2750 1649 40  0000 R CNN
F 2 "Housings_SOT-23_SOT-143_TSOT-6:SOT-23-6" H 2571 1601 29  0000 C CNN
F 3 "~" H 2750 1500 60  0000 C CNN
	1    2750 1500
	1    0    0    1   
$EndComp
$Comp
L DMP2240UDM Q13
U 2 1 5323D311
P 5000 1500
F 0 "Q13" H 5000 1352 40  0000 R CNN
F 1 "DMP2240UDM" H 5000 1649 40  0000 R CNN
F 2 "Housings_SOT-23_SOT-143_TSOT-6:SOT-23-6" H 4821 1601 29  0000 C CNN
F 3 "~" H 5000 1500 60  0000 C CNN
	2    5000 1500
	1    0    0    1   
$EndComp
$Comp
L DMP2240UDM Q14
U 1 1 5323D320
P 7250 1500
F 0 "Q14" H 7250 1352 40  0000 R CNN
F 1 "DMP2240UDM" H 7250 1649 40  0000 R CNN
F 2 "Housings_SOT-23_SOT-143_TSOT-6:SOT-23-6" H 7071 1601 29  0000 C CNN
F 3 "~" H 7250 1500 60  0000 C CNN
	1    7250 1500
	1    0    0    1   
$EndComp
$Comp
L DMP2240UDM Q14
U 2 1 5323D32F
P 9500 1500
F 0 "Q14" H 9500 1352 40  0000 R CNN
F 1 "DMP2240UDM" H 9500 1649 40  0000 R CNN
F 2 "Housings_SOT-23_SOT-143_TSOT-6:SOT-23-6" H 9321 1601 29  0000 C CNN
F 3 "~" H 9500 1500 60  0000 C CNN
	2    9500 1500
	1    0    0    1   
$EndComp
$Comp
L R R73
U 1 1 5326F3E4
P 2800 5850
F 0 "R73" V 2880 5850 40  0000 C CNN
F 1 "22" V 2807 5851 40  0000 C CNN
F 2 "Resistors_SMD:R_0603" V 2730 5850 30  0000 C CNN
F 3 "~" H 2800 5850 30  0000 C CNN
	1    2800 5850
	0    1    -1   0   
$EndComp
Wire Wire Line
	3150 5850 3050 5850
Wire Wire Line
	5700 4950 5700 5600
$Comp
L R R74
U 1 1 5326F86A
P 5050 5850
F 0 "R74" V 5130 5850 40  0000 C CNN
F 1 "22" V 5057 5851 40  0000 C CNN
F 2 "Resistors_SMD:R_0603" V 4980 5850 30  0000 C CNN
F 3 "~" H 5050 5850 30  0000 C CNN
	1    5050 5850
	0    -1   -1   0   
$EndComp
Wire Wire Line
	5400 5850 5300 5850
Wire Wire Line
	4500 5850 4800 5850
$Comp
L R R75
U 1 1 5326FB89
P 7300 5850
F 0 "R75" V 7380 5850 40  0000 C CNN
F 1 "22" V 7307 5851 40  0000 C CNN
F 2 "Resistors_SMD:R_0603" V 7230 5850 30  0000 C CNN
F 3 "~" H 7300 5850 30  0000 C CNN
	1    7300 5850
	0    -1   -1   0   
$EndComp
Wire Wire Line
	7550 5850 7650 5850
$Comp
L R R76
U 1 1 5326FEE9
P 9550 5850
F 0 "R76" V 9630 5850 40  0000 C CNN
F 1 "22" V 9557 5851 40  0000 C CNN
F 2 "Resistors_SMD:R_0603" V 9480 5850 30  0000 C CNN
F 3 "~" H 9550 5850 30  0000 C CNN
	1    9550 5850
	0    -1   -1   0   
$EndComp
Wire Wire Line
	9900 5850 9800 5850
Wire Wire Line
	9000 5850 9300 5850
Wire Wire Line
	10200 3950 10200 5600
$Comp
L CP C1
U 1 1 53271B94
P 1500 1050
F 0 "C1" H 1550 1150 40  0000 L CNN
F 1 "47u" H 1550 950 40  0000 L CNN
F 2 "Capacitors_SMD:c_elec_8x10" H 1600 900 30  0001 C CNN
F 3 "~" H 1500 1050 300 0000 C CNN
	1    1500 1050
	1    0    0    -1  
$EndComp
$Comp
L GND #PWR022
U 1 1 53271BA8
P 1500 1350
F 0 "#PWR022" H 1500 1350 30  0001 C CNN
F 1 "GND" H 1500 1280 30  0001 C CNN
F 2 "" H 1500 1350 60  0000 C CNN
F 3 "" H 1500 1350 60  0000 C CNN
	1    1500 1350
	1    0    0    -1  
$EndComp
Wire Wire Line
	1500 1350 1500 1250
Wire Wire Line
	1500 850  1500 750 
Connection ~ 1500 750 
Wire Wire Line
	9950 5150 9950 750 
$Comp
L DMN6040SSD Q19
U 1 1 54EC9E81
P 3350 5800
F 0 "Q19" H 3350 5652 40  0000 R CNN
F 1 "DMN6040SSD" H 3350 5949 40  0000 R CNN
F 2 "Housings_SOIC:SOIC-8_3.9x4.9mm_Pitch1.27mm" H 3171 5901 29  0000 C CNN
F 3 "" H 3350 5800 60  0000 C CNN
	1    3350 5800
	1    0    0    -1  
$EndComp
$Comp
L DMN6040SSD Q19
U 2 1 54EC9F2E
P 5600 5800
F 0 "Q19" H 5600 5652 40  0000 R CNN
F 1 "DMN6040SSD" H 5600 5949 40  0000 R CNN
F 2 "Housings_SOIC:SOIC-8_3.9x4.9mm_Pitch1.27mm" H 5421 5901 29  0000 C CNN
F 3 "" H 5600 5800 60  0000 C CNN
	2    5600 5800
	1    0    0    -1  
$EndComp
$Comp
L DMN6040SSD Q20
U 1 1 54EC9FD0
P 7850 5800
F 0 "Q20" H 7850 5652 40  0000 R CNN
F 1 "DMN6040SSD" H 7850 5949 40  0000 R CNN
F 2 "Housings_SOIC:SOIC-8_3.9x4.9mm_Pitch1.27mm" H 7671 5901 29  0000 C CNN
F 3 "" H 7850 5800 60  0000 C CNN
	1    7850 5800
	1    0    0    -1  
$EndComp
$Comp
L DMN6040SSD Q20
U 2 1 54ECAAB1
P 10100 5800
F 0 "Q20" H 10100 5652 40  0000 R CNN
F 1 "DMN6040SSD" H 10100 5949 40  0000 R CNN
F 2 "Housings_SOIC:SOIC-8_3.9x4.9mm_Pitch1.27mm" H 9921 5901 29  0000 C CNN
F 3 "" H 10100 5800 60  0000 C CNN
	2    10100 5800
	1    0    0    -1  
$EndComp
Wire Wire Line
	3450 5500 3550 5500
Wire Wire Line
	3550 5500 3550 5600
Connection ~ 3450 5500
Wire Wire Line
	5700 5500 5800 5500
Wire Wire Line
	5800 5500 5800 5600
Connection ~ 5700 5500
Wire Wire Line
	7950 5500 8050 5500
Wire Wire Line
	8050 5500 8050 5600
Connection ~ 7950 5500
Wire Wire Line
	10200 5500 10300 5500
Wire Wire Line
	10300 5500 10300 5600
Connection ~ 10200 5500
$EndSCHEMATC
