EESchema Schematic File Version 2
LIBS:power
LIBS:device
LIBS:transistors
LIBS:conn
LIBS:linear
LIBS:regul
LIBS:74xx
LIBS:cmos4000
LIBS:adc-dac
LIBS:memory
LIBS:xilinx
LIBS:special
LIBS:microcontrollers
LIBS:dsp
LIBS:microchip
LIBS:analog_switches
LIBS:motorola
LIBS:texas
LIBS:intel
LIBS:audio
LIBS:interface
LIBS:digital-audio
LIBS:philips
LIBS:display
LIBS:cypress
LIBS:siliconi
LIBS:opto
LIBS:atmel
LIBS:contrib
LIBS:valves
LIBS:diypinball-parts
LIBS:dips-s
LIBS:nxp_armmcu
LIBS:arm-swd-header
LIBS:base-module-hardware-v2-cache
EELAYER 25 0
EELAYER END
$Descr USLetter 11000 8500
encoding utf-8
Sheet 6 8
Title "DIYPinball Base Board"
Date "Sunday, February 22, 2015"
Rev "2.0"
Comp "DIYPinball.ca"
Comment1 ""
Comment2 ""
Comment3 ""
Comment4 ""
$EndDescr
Text HLabel 5850 2000 0    60   Input ~ 0
VSOL_IN
Text HLabel 1250 950  0    60   Input ~ 0
12V_IN
Text HLabel 9500 2000 2    60   Output ~ 0
VSOL_OUT
Text HLabel 3600 3400 2    60   Output ~ 0
LAMP_12V_OUT
Text HLabel 3600 950  2    60   Output ~ 0
5V_OUT
Text HLabel 3600 2100 2    60   Output ~ 0
3V3_OUT
$Comp
L GND #PWR038
U 1 1 5323D80C
P 2900 1650
F 0 "#PWR038" H 2900 1650 30  0001 C CNN
F 1 "GND" H 2900 1580 30  0001 C CNN
F 2 "" H 2900 1650 60  0000 C CNN
F 3 "" H 2900 1650 60  0000 C CNN
	1    2900 1650
	1    0    0    -1  
$EndComp
$Comp
L GND #PWR039
U 1 1 5323D81B
P 2900 2800
F 0 "#PWR039" H 2900 2800 30  0001 C CNN
F 1 "GND" H 2900 2730 30  0001 C CNN
F 2 "" H 2900 2800 60  0000 C CNN
F 3 "" H 2900 2800 60  0000 C CNN
	1    2900 2800
	1    0    0    -1  
$EndComp
Wire Wire Line
	2900 2400 2900 2800
Wire Wire Line
	2900 1250 2900 1650
Wire Wire Line
	3300 950  3600 950 
Wire Wire Line
	3300 2100 3600 2100
$Comp
L +3.3V #PWR040
U 1 1 5323D834
P 3450 2000
F 0 "#PWR040" H 3450 1960 30  0001 C CNN
F 1 "+3.3V" H 3450 2110 30  0000 C CNN
F 2 "" H 3450 2000 60  0000 C CNN
F 3 "" H 3450 2000 60  0000 C CNN
	1    3450 2000
	1    0    0    -1  
$EndComp
$Comp
L +5V #PWR041
U 1 1 5323D84D
P 3450 850
F 0 "#PWR041" H 3450 940 20  0001 C CNN
F 1 "+5V" H 3450 940 30  0000 C CNN
F 2 "" H 3450 850 60  0000 C CNN
F 3 "" H 3450 850 60  0000 C CNN
	1    3450 850 
	1    0    0    -1  
$EndComp
Wire Wire Line
	3450 850  3450 1050
Connection ~ 3450 950 
Wire Wire Line
	3450 2000 3450 2200
Connection ~ 3450 2100
Wire Wire Line
	1900 950  2500 950 
Wire Wire Line
	2100 2100 2500 2100
Wire Wire Line
	2100 950  2100 5450
Connection ~ 2100 950 
$Comp
L CP C14
U 1 1 5323D87D
P 3450 1250
F 0 "C14" H 3500 1350 40  0000 L CNN
F 1 "10u" H 3500 1150 40  0000 L CNN
F 2 "Capacitors_SMD:C_0805" H 3550 1100 30  0001 C CNN
F 3 "~" H 3450 1250 300 0000 C CNN
	1    3450 1250
	1    0    0    -1  
$EndComp
$Comp
L CP C13
U 1 1 5323D88C
P 2400 1250
F 0 "C13" H 2450 1350 40  0000 L CNN
F 1 "10u" H 2450 1150 40  0000 L CNN
F 2 "Capacitors_SMD:C_0805" H 2500 1100 30  0001 C CNN
F 3 "~" H 2400 1250 300 0000 C CNN
	1    2400 1250
	1    0    0    -1  
$EndComp
$Comp
L CP C16
U 1 1 5323D89B
P 2400 2400
F 0 "C16" H 2450 2500 40  0000 L CNN
F 1 "10u" H 2450 2300 40  0000 L CNN
F 2 "Capacitors_SMD:C_0805" H 2500 2250 30  0001 C CNN
F 3 "~" H 2400 2400 300 0000 C CNN
	1    2400 2400
	1    0    0    -1  
$EndComp
Wire Wire Line
	2400 1450 2400 1550
Wire Wire Line
	2400 1550 3450 1550
Connection ~ 2900 1550
Wire Wire Line
	3450 1550 3450 1450
Wire Wire Line
	3450 2700 3450 2600
Wire Wire Line
	2400 2700 3450 2700
Connection ~ 2900 2700
Wire Wire Line
	2400 2700 2400 2600
Wire Wire Line
	2400 2200 2400 2100
Connection ~ 2400 2100
Wire Wire Line
	2400 1050 2400 950 
Connection ~ 2400 950 
$Comp
L +12V #PWR042
U 1 1 5323D95F
P 2250 850
F 0 "#PWR042" H 2250 800 20  0001 C CNN
F 1 "+12V" H 2250 950 30  0000 C CNN
F 2 "" H 2250 850 60  0000 C CNN
F 3 "" H 2250 850 60  0000 C CNN
	1    2250 850 
	1    0    0    -1  
$EndComp
Wire Wire Line
	2250 850  2250 950 
Connection ~ 2250 950 
$Comp
L C C17
U 1 1 5323DB4D
P 3450 2400
F 0 "C17" H 3450 2500 40  0000 L CNN
F 1 "4.7u" H 3456 2315 40  0000 L CNN
F 2 "Capacitors_SMD:C_0603" H 3488 2250 30  0000 C CNN
F 3 "~" H 3450 2400 60  0000 C CNN
	1    3450 2400
	1    0    0    -1  
$EndComp
$Comp
L R R130
U 1 1 5323DD09
P 9100 5350
F 0 "R130" V 9180 5350 40  0000 C CNN
F 1 "27K" V 9107 5351 40  0000 C CNN
F 2 "Resistors_SMD:R_0603" V 9030 5350 30  0000 C CNN
F 3 "~" H 9100 5350 30  0000 C CNN
	1    9100 5350
	1    0    0    -1  
$EndComp
$Comp
L R R131
U 1 1 5323DD18
P 9400 5350
F 0 "R131" V 9480 5350 40  0000 C CNN
F 1 "2.7K" V 9407 5351 40  0000 C CNN
F 2 "Resistors_SMD:R_0603" V 9330 5350 30  0000 C CNN
F 3 "~" H 9400 5350 30  0000 C CNN
	1    9400 5350
	1    0    0    -1  
$EndComp
$Comp
L R R132
U 1 1 5323DD27
P 9700 5350
F 0 "R132" V 9780 5350 40  0000 C CNN
F 1 "1K" V 9707 5351 40  0000 C CNN
F 2 "Resistors_SMD:R_0603" V 9630 5350 30  0000 C CNN
F 3 "~" H 9700 5350 30  0000 C CNN
	1    9700 5350
	1    0    0    -1  
$EndComp
$Comp
L R R133
U 1 1 5323DD36
P 10000 5350
F 0 "R133" V 10080 5350 40  0000 C CNN
F 1 "1K" V 10007 5351 40  0000 C CNN
F 2 "Resistors_SMD:R_0603" V 9930 5350 30  0000 C CNN
F 3 "~" H 10000 5350 30  0000 C CNN
	1    10000 5350
	1    0    0    -1  
$EndComp
$Comp
L LED D36
U 1 1 5323DD59
P 9400 5900
F 0 "D36" H 9400 6000 50  0000 C CNN
F 1 "LED" H 9400 5800 50  0000 C CNN
F 2 "LEDs:LED-0603" H 9400 5900 60  0001 C CNN
F 3 "~" H 9400 5900 60  0000 C CNN
	1    9400 5900
	0    1    1    0   
$EndComp
$Comp
L LED D35
U 1 1 5323DD68
P 9100 5900
F 0 "D35" H 9100 6000 50  0000 C CNN
F 1 "LED" H 9100 5800 50  0000 C CNN
F 2 "LEDs:LED-0603" H 9100 5900 60  0001 C CNN
F 3 "~" H 9100 5900 60  0000 C CNN
	1    9100 5900
	0    1    1    0   
$EndComp
$Comp
L LED D37
U 1 1 5323DD77
P 9700 5900
F 0 "D37" H 9700 6000 50  0000 C CNN
F 1 "LED" H 9700 5800 50  0000 C CNN
F 2 "LEDs:LED-0603" H 9700 5900 60  0001 C CNN
F 3 "~" H 9700 5900 60  0000 C CNN
	1    9700 5900
	0    1    1    0   
$EndComp
$Comp
L LED D38
U 1 1 5323DD86
P 10000 5900
F 0 "D38" H 10000 6000 50  0000 C CNN
F 1 "LED" H 10000 5800 50  0000 C CNN
F 2 "LEDs:LED-0603" H 10000 5900 30  0001 C CNN
F 3 "~" H 10000 5900 60  0000 C CNN
	1    10000 5900
	0    1    1    0   
$EndComp
Wire Wire Line
	9100 5600 9100 5700
Wire Wire Line
	9400 5700 9400 5600
Wire Wire Line
	9700 5600 9700 5700
Wire Wire Line
	10000 5700 10000 5600
Wire Wire Line
	9100 6100 9100 6200
Wire Wire Line
	9100 6200 10000 6200
Wire Wire Line
	10000 6200 10000 6100
Wire Wire Line
	9700 6100 9700 6200
Connection ~ 9700 6200
Wire Wire Line
	9400 6100 9400 6200
Connection ~ 9400 6200
$Comp
L GND #PWR043
U 1 1 5323DED8
P 9550 6300
F 0 "#PWR043" H 9550 6300 30  0001 C CNN
F 1 "GND" H 9550 6230 30  0001 C CNN
F 2 "" H 9550 6300 60  0000 C CNN
F 3 "" H 9550 6300 60  0000 C CNN
	1    9550 6300
	1    0    0    -1  
$EndComp
Wire Wire Line
	9550 6300 9550 6200
Connection ~ 9550 6200
$Comp
L +3.3V #PWR044
U 1 1 5323DF0D
P 10000 5000
F 0 "#PWR044" H 10000 4960 30  0001 C CNN
F 1 "+3.3V" H 10000 5110 30  0000 C CNN
F 2 "" H 10000 5000 60  0000 C CNN
F 3 "" H 10000 5000 60  0000 C CNN
	1    10000 5000
	1    0    0    -1  
$EndComp
$Comp
L +5V #PWR045
U 1 1 5323DF1C
P 9700 5000
F 0 "#PWR045" H 9700 5090 20  0001 C CNN
F 1 "+5V" H 9700 5090 30  0000 C CNN
F 2 "" H 9700 5000 60  0000 C CNN
F 3 "" H 9700 5000 60  0000 C CNN
	1    9700 5000
	1    0    0    -1  
$EndComp
$Comp
L +12V #PWR046
U 1 1 5323DF2B
P 9400 5000
F 0 "#PWR046" H 9400 4950 20  0001 C CNN
F 1 "+12V" H 9400 5100 30  0000 C CNN
F 2 "" H 9400 5000 60  0000 C CNN
F 3 "" H 9400 5000 60  0000 C CNN
	1    9400 5000
	1    0    0    -1  
$EndComp
Wire Wire Line
	9400 5000 9400 5100
Wire Wire Line
	9700 5000 9700 5100
Wire Wire Line
	10000 5000 10000 5100
$Comp
L VEE #PWR52
U 1 1 5323DFC9
P 9100 5000
F 0 "#PWR52" H 9100 5200 40  0001 C CNN
F 1 "VEE" H 9100 5150 40  0000 C CNN
F 2 "" H 9100 5000 60  0000 C CNN
F 3 "" H 9100 5000 60  0000 C CNN
	1    9100 5000
	1    0    0    -1  
$EndComp
Wire Wire Line
	9100 5000 9100 5100
Text HLabel 3600 3250 2    60   Output ~ 0
SWITCH_12V_OUT
Text HLabel 3600 5450 2    60   Output ~ 0
12V_SENSE_OUT
Text HLabel 9500 2800 2    60   Output ~ 0
VSOL_SENSE_OUT
Text HLabel 9500 950  2    60   Output ~ 0
VSOL_IN_SENSE_OUT
Text HLabel 9500 3700 2    60   Output ~ 0
ISOL_SENSE_OUT
Text HLabel 3600 4600 2    60   Output ~ 0
ILAMP_SENSE_OUT
Text HLabel 5850 950  0    60   Input ~ 0
VSOL_MEASURE_IN
Text HLabel 5850 3800 0    60   Input ~ 0
VSOL_PRECHARGE_PWM
$Comp
L R R124
U 1 1 5325ED8A
P 2950 3400
F 0 "R124" V 3030 3400 40  0000 C CNN
F 1 "0.075" V 2957 3401 40  0000 C CNN
F 2 "Resistors_SMD:R_1206" V 2880 3400 30  0000 C CNN
F 3 "~" H 2950 3400 30  0000 C CNN
F 4 "989-1030-1-ND" V 2950 3400 60  0001 C CNN "Digikey P/N"
	1    2950 3400
	0    1    1    0   
$EndComp
Wire Wire Line
	3200 3400 3600 3400
Wire Wire Line
	3250 3550 3250 3400
Connection ~ 3250 3400
Wire Wire Line
	2100 3400 2700 3400
Wire Wire Line
	2650 3400 2650 3550
Connection ~ 2650 3400
Connection ~ 2100 2100
$Comp
L ZXCT1107SA-7 U7
U 1 1 5325F137
P 2950 4050
F 0 "U7" H 2950 4150 60  0000 C CNN
F 1 "ZXCT1107SA-7" H 2950 4050 60  0000 C CNN
F 2 "Housings_SOT-23_SOT-143_TSOT-6:SOT-23" H 2950 4050 60  0001 C CNN
F 3 "" H 2950 4050 60  0000 C CNN
	1    2950 4050
	1    0    0    -1  
$EndComp
$Comp
L R R128
U 1 1 5325F162
P 2950 4900
F 0 "R128" V 3030 4900 40  0000 C CNN
F 1 "5.1K 1%" V 2957 4901 40  0000 C CNN
F 2 "Resistors_SMD:R_0603" V 2880 4900 30  0000 C CNN
F 3 "~" H 2950 4900 30  0000 C CNN
	1    2950 4900
	1    0    0    -1  
$EndComp
Wire Wire Line
	2950 4550 2950 4650
$Comp
L GND #PWR047
U 1 1 5325F1C0
P 2950 5250
F 0 "#PWR047" H 2950 5250 30  0001 C CNN
F 1 "GND" H 2950 5180 30  0001 C CNN
F 2 "" H 2950 5250 60  0000 C CNN
F 3 "" H 2950 5250 60  0000 C CNN
	1    2950 5250
	1    0    0    -1  
$EndComp
Wire Wire Line
	2950 5250 2950 5150
Wire Wire Line
	3600 4600 2950 4600
Connection ~ 2950 4600
Wire Wire Line
	3600 3250 2100 3250
Connection ~ 2100 3250
$Comp
L R R129
U 1 1 5325F7A5
P 2550 5450
F 0 "R129" V 2630 5450 40  0000 C CNN
F 1 "20.5K 1%" V 2557 5451 40  0000 C CNN
F 2 "Resistors_SMD:R_0603" V 2480 5450 30  0000 C CNN
F 3 "~" H 2550 5450 30  0000 C CNN
	1    2550 5450
	0    1    1    0   
$EndComp
Wire Wire Line
	2100 5450 2300 5450
Connection ~ 2100 3400
Wire Wire Line
	2800 5450 3600 5450
$Comp
L R R134
U 1 1 5325F83D
P 2950 5850
F 0 "R134" V 3030 5850 40  0000 C CNN
F 1 "5.1K 1%" V 2957 5851 40  0000 C CNN
F 2 "Resistors_SMD:R_0603" V 2880 5850 30  0000 C CNN
F 3 "~" H 2950 5850 30  0000 C CNN
	1    2950 5850
	1    0    0    -1  
$EndComp
$Comp
L GND #PWR048
U 1 1 5325F856
P 2950 6300
F 0 "#PWR048" H 2950 6300 30  0001 C CNN
F 1 "GND" H 2950 6230 30  0001 C CNN
F 2 "" H 2950 6300 60  0000 C CNN
F 3 "" H 2950 6300 60  0000 C CNN
	1    2950 6300
	1    0    0    -1  
$EndComp
Wire Wire Line
	2950 6100 2950 6300
Wire Wire Line
	2950 5600 2950 5450
Connection ~ 2950 5450
$Comp
L CP C20
U 1 1 5325F8F3
P 3300 5850
F 0 "C20" H 3350 5950 40  0000 L CNN
F 1 "10u" H 3350 5750 40  0000 L CNN
F 2 "Capacitors_SMD:C_0805" H 3400 5700 30  0001 C CNN
F 3 "~" H 3300 5850 300 0000 C CNN
	1    3300 5850
	1    0    0    -1  
$EndComp
Wire Wire Line
	3300 5650 3300 5450
Connection ~ 3300 5450
Wire Wire Line
	2950 6200 3300 6200
Wire Wire Line
	3300 6200 3300 6050
Connection ~ 2950 6200
$Comp
L FUSE F1
U 1 1 5325FC37
P 1650 950
F 0 "F1" H 1750 1000 40  0000 C CNN
F 1 "FUSE" H 1550 900 40  0000 C CNN
F 2 "PinballParts:FC203-20MM" H 1650 950 60  0001 C CNN
F 3 "~" H 1650 950 60  0000 C CNN
	1    1650 950 
	1    0    0    -1  
$EndComp
Wire Wire Line
	1400 950  1250 950 
$Comp
L FUSE F2
U 1 1 5325FF5E
P 6200 2000
F 0 "F2" H 6300 2050 40  0000 C CNN
F 1 "FUSE" H 6100 1950 40  0000 C CNN
F 2 "PinballParts:FC203-20MM" H 6200 2000 60  0001 C CNN
F 3 "~" H 6200 2000 60  0000 C CNN
	1    6200 2000
	1    0    0    -1  
$EndComp
Wire Wire Line
	5950 2000 5850 2000
$Comp
L MOSFET_P Q30
U 1 1 5325FFF8
P 7050 2100
F 0 "Q30" H 7050 2290 60  0000 R CNN
F 1 "FDD5614P" H 7050 1920 60  0000 R CNN
F 2 "PinballParts:DPAK-2" H 7050 2100 60  0001 C CNN
F 3 "~" H 7050 2100 60  0000 C CNN
	1    7050 2100
	0    1    -1   0   
$EndComp
$Comp
L R R121
U 1 1 53260020
P 6550 2650
F 0 "R121" V 6630 2650 40  0000 C CNN
F 1 "10K" V 6557 2651 40  0000 C CNN
F 2 "Resistors_SMD:R_0603" V 6480 2650 30  0000 C CNN
F 3 "~" H 6550 2650 30  0000 C CNN
	1    6550 2650
	1    0    0    -1  
$EndComp
$Comp
L R R125
U 1 1 53260033
P 7050 3250
F 0 "R125" V 7130 3250 40  0000 C CNN
F 1 "27K" V 7057 3251 40  0000 C CNN
F 2 "Resistors_SMD:R_0603" V 6980 3250 30  0000 C CNN
F 3 "~" H 7050 3250 30  0000 C CNN
	1    7050 3250
	1    0    0    -1  
$EndComp
$Comp
L BC846 Q31
U 1 1 53260042
P 6950 3800
F 0 "Q31" H 6950 3651 40  0000 R CNN
F 1 "BC846" H 6950 3950 40  0000 R CNN
F 2 "Housings_SOT-23_SOT-143_TSOT-6:SOT-23" H 6850 3902 29  0000 C CNN
F 3 "~" H 6950 3800 60  0000 C CNN
	1    6950 3800
	1    0    0    -1  
$EndComp
$Comp
L R R126
U 1 1 53260051
P 6300 3800
F 0 "R126" V 6380 3800 40  0000 C CNN
F 1 "1K" V 6307 3801 40  0000 C CNN
F 2 "Resistors_SMD:R_0603" V 6230 3800 30  0000 C CNN
F 3 "~" H 6300 3800 30  0000 C CNN
	1    6300 3800
	0    1    1    0   
$EndComp
Wire Wire Line
	6550 3800 6750 3800
Wire Wire Line
	6050 3800 5850 3800
Wire Wire Line
	7050 2300 7050 3000
Wire Wire Line
	7050 2950 6550 2950
Wire Wire Line
	6550 2950 6550 2900
Connection ~ 7050 2950
Wire Wire Line
	7050 3500 7050 3600
Wire Wire Line
	6450 2000 6850 2000
Wire Wire Line
	6550 1400 6550 2400
Connection ~ 6550 2000
$Comp
L R R127
U 1 1 5326032A
P 6650 4150
F 0 "R127" V 6730 4150 40  0000 C CNN
F 1 "10K" V 6657 4151 40  0000 C CNN
F 2 "Resistors_SMD:R_0603" V 6580 4150 30  0000 C CNN
F 3 "~" H 6650 4150 30  0000 C CNN
	1    6650 4150
	1    0    0    -1  
$EndComp
Wire Wire Line
	7050 4000 7050 4600
Wire Wire Line
	7050 4500 6650 4500
Wire Wire Line
	6650 4500 6650 4400
Wire Wire Line
	6650 3900 6650 3800
Connection ~ 6650 3800
$Comp
L GND #PWR049
U 1 1 532603DF
P 7050 4600
F 0 "#PWR049" H 7050 4600 30  0001 C CNN
F 1 "GND" H 7050 4530 30  0001 C CNN
F 2 "" H 7050 4600 60  0000 C CNN
F 3 "" H 7050 4600 60  0000 C CNN
	1    7050 4600
	1    0    0    -1  
$EndComp
Connection ~ 7050 4500
Wire Wire Line
	8150 2000 9500 2000
$Comp
L CP C18
U 1 1 53260505
P 8550 2400
F 0 "C18" H 8600 2500 40  0000 L CNN
F 1 "470u" H 8600 2300 40  0000 L CNN
F 2 "Capacitors_ThroughHole:C_Radial_D16_L25_P7.5" H 8650 2250 30  0001 C CNN
F 3 "~" H 8550 2400 300 0000 C CNN
	1    8550 2400
	1    0    0    -1  
$EndComp
Wire Wire Line
	8550 2200 8550 2000
Connection ~ 8550 2000
$Comp
L GND #PWR050
U 1 1 5326056C
P 8550 2800
F 0 "#PWR050" H 8550 2800 30  0001 C CNN
F 1 "GND" H 8550 2730 30  0001 C CNN
F 2 "" H 8550 2800 60  0000 C CNN
F 3 "" H 8550 2800 60  0000 C CNN
	1    8550 2800
	1    0    0    -1  
$EndComp
Wire Wire Line
	8550 2800 8550 2600
$Comp
L R R119
U 1 1 53260876
P 7900 2000
F 0 "R119" V 7980 2000 40  0000 C CNN
F 1 ".003" V 7907 2001 40  0000 C CNN
F 2 "Resistors_SMD:R_1206" V 7830 2000 30  0000 C CNN
F 3 "~" H 7900 2000 30  0000 C CNN
F 4 "989-1026-1-ND" V 7900 2000 60  0001 C CNN "Digikey P/N"
	1    7900 2000
	0    1    1    0   
$EndComp
Wire Wire Line
	7250 2000 7650 2000
$Comp
L R R120
U 1 1 5326113C
P 9000 2450
F 0 "R120" V 9080 2450 40  0000 C CNN
F 1 "95.3K 1%" V 9007 2451 40  0000 C CNN
F 2 "Resistors_SMD:R_0603" V 8930 2450 30  0000 C CNN
F 3 "~" H 9000 2450 30  0000 C CNN
	1    9000 2450
	1    0    0    -1  
$EndComp
$Comp
L R R123
U 1 1 5326114B
P 9000 3150
F 0 "R123" V 9080 3150 40  0000 C CNN
F 1 "5.1K 1%" V 9007 3151 40  0000 C CNN
F 2 "Resistors_SMD:R_0603" V 8930 3150 30  0000 C CNN
F 3 "~" H 9000 3150 30  0000 C CNN
	1    9000 3150
	1    0    0    -1  
$EndComp
$Comp
L CP C19
U 1 1 5326115A
P 9300 3150
F 0 "C19" H 9350 3250 40  0000 L CNN
F 1 "10u" H 9350 3050 40  0000 L CNN
F 2 "Capacitors_SMD:C_0805" H 9400 3000 30  0001 C CNN
F 3 "~" H 9300 3150 300 0000 C CNN
	1    9300 3150
	1    0    0    -1  
$EndComp
$Comp
L GND #PWR051
U 1 1 5326116E
P 9150 3500
F 0 "#PWR051" H 9150 3500 30  0001 C CNN
F 1 "GND" H 9150 3430 30  0001 C CNN
F 2 "" H 9150 3500 60  0000 C CNN
F 3 "" H 9150 3500 60  0000 C CNN
	1    9150 3500
	1    0    0    -1  
$EndComp
Wire Wire Line
	9000 2000 9000 2200
Connection ~ 9000 2000
Wire Wire Line
	9000 2700 9000 2900
Wire Wire Line
	9000 2800 9500 2800
Wire Wire Line
	9300 2950 9300 2800
Connection ~ 9300 2800
Connection ~ 9000 2800
Wire Wire Line
	9150 3500 9150 3450
Wire Wire Line
	9000 3450 9300 3450
Wire Wire Line
	9000 3450 9000 3400
Wire Wire Line
	9300 3450 9300 3350
Connection ~ 9150 3450
$Comp
L BSS138 Q29
U 1 1 532619C9
P 8450 1050
F 0 "Q29" H 8450 901 40  0000 R CNN
F 1 "BSS138 DNP" H 8450 1200 40  0000 R CNN
F 2 "Housings_SOT-23_SOT-143_TSOT-6:SOT-23" H 8320 1152 29  0000 C CNN
F 3 "~" H 8450 1050 60  0000 C CNN
	1    8450 1050
	0    -1   -1   0   
$EndComp
$Comp
L R R115
U 1 1 532619D8
P 6200 950
F 0 "R115" V 6280 950 40  0000 C CNN
F 1 "1K DNP" V 6207 951 40  0000 C CNN
F 2 "Resistors_SMD:R_0603" V 6130 950 30  0000 C CNN
F 3 "~" H 6200 950 30  0000 C CNN
	1    6200 950 
	0    1    1    0   
$EndComp
$Comp
L R R116
U 1 1 532619E7
P 6200 1150
F 0 "R116" V 6280 1150 40  0000 C CNN
F 1 "10K DNP" V 6207 1151 40  0000 C CNN
F 2 "Resistors_SMD:R_0603" V 6130 1150 30  0000 C CNN
F 3 "~" H 6200 1150 30  0000 C CNN
	1    6200 1150
	0    1    1    0   
$EndComp
$Comp
L CP C15
U 1 1 532619F6
P 9200 1250
F 0 "C15" H 9250 1350 40  0000 L CNN
F 1 "10u DNP" H 9250 1150 40  0000 L CNN
F 2 "Capacitors_SMD:C_0805" H 9300 1100 30  0001 C CNN
F 3 "~" H 9200 1250 300 0000 C CNN
	1    9200 1250
	1    0    0    -1  
$EndComp
$Comp
L GND #PWR052
U 1 1 53261A0A
P 9200 1550
F 0 "#PWR052" H 9200 1550 30  0001 C CNN
F 1 "GND" H 9200 1480 30  0001 C CNN
F 2 "" H 9200 1550 60  0000 C CNN
F 3 "" H 9200 1550 60  0000 C CNN
	1    9200 1550
	1    0    0    -1  
$EndComp
$Comp
L GND #PWR053
U 1 1 53261A19
P 5850 1250
F 0 "#PWR053" H 5850 1250 30  0001 C CNN
F 1 "GND" H 5850 1180 30  0001 C CNN
F 2 "" H 5850 1250 60  0000 C CNN
F 3 "" H 5850 1250 60  0000 C CNN
	1    5850 1250
	1    0    0    -1  
$EndComp
Wire Wire Line
	5950 1150 5850 1150
Wire Wire Line
	5850 1150 5850 1250
Wire Wire Line
	5850 950  5950 950 
Wire Wire Line
	9200 1450 9200 1550
Wire Wire Line
	8650 950  9500 950 
Wire Wire Line
	9200 950  9200 1050
Connection ~ 9200 950 
Wire Wire Line
	6450 950  6550 950 
Wire Wire Line
	6550 950  6550 1150
Wire Wire Line
	6450 1150 7850 1150
Wire Wire Line
	7850 1150 7850 1350
Wire Wire Line
	7850 1350 8500 1350
Wire Wire Line
	8500 1350 8500 1250
Connection ~ 6550 1150
$Comp
L R R117
U 1 1 53261E5F
P 7000 1400
F 0 "R117" V 7080 1400 40  0000 C CNN
F 1 "95.3K 1% DNP" V 7007 1401 40  0000 C CNN
F 2 "Resistors_SMD:R_0603" V 6930 1400 30  0000 C CNN
F 3 "~" H 7000 1400 30  0000 C CNN
	1    7000 1400
	0    1    1    0   
$EndComp
$Comp
L R R118
U 1 1 53261E78
P 7000 1600
F 0 "R118" V 7080 1600 40  0000 C CNN
F 1 "5.1K 1% DNP" V 7007 1601 40  0000 C CNN
F 2 "Resistors_SMD:R_0603" V 6930 1600 30  0000 C CNN
F 3 "~" H 7000 1600 30  0000 C CNN
	1    7000 1600
	0    1    1    0   
$EndComp
Wire Wire Line
	6750 1400 6550 1400
Wire Wire Line
	7350 1600 7250 1600
Wire Wire Line
	7350 950  7350 1600
Wire Wire Line
	7350 1400 7250 1400
Wire Wire Line
	7350 950  8250 950 
Connection ~ 7350 1400
$Comp
L GND #PWR054
U 1 1 53262025
P 6650 1700
F 0 "#PWR054" H 6650 1700 30  0001 C CNN
F 1 "GND" H 6650 1630 30  0001 C CNN
F 2 "" H 6650 1700 60  0000 C CNN
F 3 "" H 6650 1700 60  0000 C CNN
	1    6650 1700
	1    0    0    -1  
$EndComp
Wire Wire Line
	6650 1700 6650 1600
Wire Wire Line
	6650 1600 6750 1600
Text Notes 2800 3600 0    60   ~ 0
LRC-LR1206LF-01-R075F
$Comp
L VEE #PWR41
U 1 1 53276E13
P 6550 1400
F 0 "#PWR41" H 6550 1600 40  0001 C CNN
F 1 "VEE" H 6550 1550 40  0000 C CNN
F 2 "" H 6550 1400 60  0000 C CNN
F 3 "" H 6550 1400 60  0000 C CNN
	1    6550 1400
	1    0    0    -1  
$EndComp
Text HLabel 3600 3100 2    60   Output ~ 0
RGB_12V_OUT
Wire Wire Line
	3600 3100 2100 3100
Connection ~ 2100 3100
$Comp
L ZXCT1086E5TA U6
U 1 1 5329BE87
P 7900 2800
F 0 "U6" H 7900 2900 60  0000 C CNN
F 1 "ZXCT1086E5TA" H 7900 2800 60  0000 C CNN
F 2 "Housings_SOT-23_SOT-143_TSOT-6:SOT-23-5" H 7900 2800 60  0001 C CNN
F 3 "~" H 7900 2800 60  0000 C CNN
	1    7900 2800
	1    0    0    -1  
$EndComp
Wire Wire Line
	8200 2300 8200 2000
Connection ~ 8200 2000
Wire Wire Line
	7600 2300 7600 2000
Connection ~ 7600 2000
$Comp
L GND #PWR055
U 1 1 5329BFF2
P 7900 3800
F 0 "#PWR055" H 7900 3800 30  0001 C CNN
F 1 "GND" H 7900 3730 30  0001 C CNN
F 2 "" H 7900 3800 60  0000 C CNN
F 3 "" H 7900 3800 60  0000 C CNN
	1    7900 3800
	1    0    0    -1  
$EndComp
Wire Wire Line
	7350 3300 7350 3400
Wire Wire Line
	7350 3400 7600 3400
Wire Wire Line
	7600 3400 7600 3300
Wire Wire Line
	7900 3300 7900 3800
$Comp
L +3.3V #PWR056
U 1 1 5329C124
P 7350 3300
F 0 "#PWR056" H 7350 3260 30  0001 C CNN
F 1 "+3.3V" H 7350 3410 30  0000 C CNN
F 2 "" H 7350 3300 60  0000 C CNN
F 3 "" H 7350 3300 60  0000 C CNN
	1    7350 3300
	1    0    0    -1  
$EndComp
Wire Wire Line
	9500 3700 8200 3700
Wire Wire Line
	8200 3700 8200 3300
Text HLabel 3600 2950 2    60   Output ~ 0
SOL_12V_OUT
Wire Wire Line
	3600 2950 2100 2950
Connection ~ 2100 2950
$Comp
L MC78L05 U4
U 1 1 558D7698
P 2900 1000
F 0 "U4" H 2700 1200 40  0000 C CNN
F 1 "MC78L05" H 2900 1200 40  0000 L CNN
F 2 "SMD_Packages:SOT-223" H 2900 1100 30  0000 C CIN
F 3 "" H 2900 1000 60  0000 C CNN
	1    2900 1000
	1    0    0    -1  
$EndComp
Wire Wire Line
	3000 1250 3000 1550
Connection ~ 3000 1550
$Comp
L AP1117IE33G U5
U 1 1 558D864C
P 2900 2150
F 0 "U5" H 2900 2400 40  0000 C CNN
F 1 "AP1117IE33G" H 2900 2350 40  0000 C CNN
F 2 "SMD_Packages:SOT-223" H 2900 2150 60  0000 C CNN
F 3 "" H 2900 2150 60  0000 C CNN
	1    2900 2150
	1    0    0    -1  
$EndComp
Wire Wire Line
	3300 2200 3350 2200
Wire Wire Line
	3350 2200 3350 2100
Connection ~ 3350 2100
$EndSCHEMATC
